{
  "project_info": {
    "project_number": "495421164798",
    "firebase_url": "https://fir-13db2.firebaseio.com",
    "project_id": "fir-13db2",
    "storage_bucket": "fir-13db2.appspot.com"
  },
  "client": [
    {
      "client_info": {
        "mobilesdk_app_id": "1:495421164798:android:5dd4bad0e47c2a444369af",
        "android_client_info": {
          "package_name": "com.example.agendafirebase"
        }
      },
      "oauth_client": [
        {
          "client_id": "495421164798-meb2erspjmdl79agenkj7c5c11pc8kqn.apps.googleusercontent.com",
          "client_type": 1,
          "android_info": {
            "package_name": "com.example.agendafirebase",
            "certificate_hash": "63b854d170fa1d477196c82539b43cbcee006da1"
          }
        },
        {
          "client_id": "495421164798-6uvc9t1lht63ch9idnjm21ohpobc964h.apps.googleusercontent.com",
          "client_type": 3
        }
      ],
      "api_key": [
        {
          "current_key": "AIzaSyA0ZqcQ0R0OZoowNMjvYdTNoz6LmqK7iSI"
        }
      ],
      "services": {
        "appinvite_service": {
          "other_platform_oauth_client": [
            {
              "client_id": "495421164798-6uvc9t1lht63ch9idnjm21ohpobc964h.apps.googleusercontent.com",
              "client_type": 3
            }
          ]
        }
      }
    }
  ],
  "configuration_version": "1"
}